@relation result_clustered-weka.filters.unsupervised.attribute.Remove-R1

@attribute cpuUsage numeric
@attribute gpuUsage numeric
@attribute memUsage numeric
@attribute Cluster {p0,p1}

@data
0,0,0.028658,p1
0,0,0.028658,p1
0,0,0.028658,p1
0,0,0.028658,p1
0,0,0.028658,p1
0,0,0.028658,p1
0,0,0.028658,p1
0.004878,0,0.028673,p1
0,0,0.028673,p1
0.062201,0,0.028978,p1
0,0,0.028978,p1
0.076142,0,0.02898,p1
0,0,0.02898,p1
0,0,0.02898,p1
0,0,0.02898,p1
0,0,0.02898,p1
0,0,0.02898,p1
0,0,0.02898,p1
0,0,0.02898,p1
0.217391,0,0.029035,p1
0.178571,0,0.029035,p1
0.230769,0,0.029012,p1
0.138393,0,0.029012,p1
0.014493,0,0.029016,p1
0,0,0.029016,p1
0,0,0.029016,p1
0,0,0.029016,p1
0.014423,0,0.029018,p1
0,0,0.029018,p1
0.00995,0,0.029018,p1
0,0,0.029018,p1
0.004831,0,0.029018,p1
0,0,0.029018,p1
0,0,0.029033,p1
0,0,0.029033,p1
0.233503,0,0.029008,p1
0.034826,0,0.029008,p1
0,0,0.029008,p1
0,0,0.029008,p1
0.019802,0,0.029012,p1
0,0,0.02913,p1
0,0,0.02913,p1
0.015152,0,0.029132,p1
0,0,0.029132,p1
0.009662,0,0.029132,p1
0,0,0.029132,p1
0,0,0.029132,p1
0,0,0.029132,p1
0,0,0.029132,p1
0,0,0.029132,p1
0,0,0.029132,p1
0,0,0.029132,p1
0,0,0.029132,p1
0,0,0.029132,p1
0,0,0.029132,p1
0,0,0.029132,p1
0.004785,0,0.029132,p1
0,0,0.029132,p1
0.118557,0,0.029197,p1
0.034483,0,0.029187,p1
0,0,0.029187,p1
0,0,0.029187,p1
0.019139,0,0.029176,p1
0,0,0.029176,p1
0.019231,0,0.029176,p1
0,0,0.029176,p1
0,0,0.029176,p1
0,0,0.029176,p1
0,0,0.029176,p1
0,0,0.029176,p1
0,0,0.029176,p1
0,0,0.029176,p1
0,0,0.029176,p1
0,0,0.029176,p1
0,0,0.029176,p1
0.009569,0,0.029184,p1
0.004831,0,0.029184,p1
0,0,0.029184,p1
0,0,0.029184,p1
0,0,0.029184,p1
0,0,0.029184,p1
0.019324,0,0.029208,p1
0,0,0.029208,p1
0,0,0.029208,p1
0,0,0.029208,p1
0,0,0.029208,p1
0,0,0.029208,p1
0,0,0.029208,p1
0,0,0.029208,p1
0.014354,0,0.029269,p1
0,0,0.029269,p1
0,0,0.029269,p1
0,0,0.029269,p1
0.019139,0,0.029269,p1
0,0,0.029269,p1
0,0,0.029269,p1
0,0,0.029269,p1
0,0,0.029269,p1
0,0,0.029269,p1
0,0,0.029269,p1
0,0,0.029269,p1
0,0,0.029269,p1
0,0,0.029269,p1
0.029557,0,0.029273,p1
0,0,0.029273,p1
0.381643,0,0.029277,p1
0.014354,0,0.029277,p1
0,0,0.029277,p1
0.042654,0,0.029277,p1
0.15942,0,0.029271,p1
0.025253,0,0.029288,p1
0,0,0.029275,p1
0,0,0.029275,p1
0,0,0.029275,p1
0,0,0.029275,p1
0,0,0.029275,p1
0,0,0.029275,p1
0,0,0.029275,p1
0,0,0.029275,p1
0,0,0.029275,p1
0,0,0.030143,p1
0,0,0.030143,p1
0.009709,0,0.030143,p1
0,0,0.030143,p1
0.005076,0,0.030143,p1
0,0,0.030368,p1
0.048673,0,0.031067,p1
0.004975,0,0.031092,p1
0,0,0.031092,p1
0.020305,0,0.031094,p1
0,0,0.031094,p1
0,0,0.031094,p1
0,0,0.031094,p1
0.019417,0,0.031094,p1
0,0,0.031094,p1
0.004926,0,0.031094,p1
0,0,0.031094,p1
0.02,0,0.03112,p1
0,0,0.03112,p1
0.020408,0,0.031122,p1
0,0,0.031122,p1
0.005051,0,0.031122,p1
0,0,0.031122,p1
0,0,0.031122,p1
0,0,0.031122,p1
0.029268,0,0.031122,p1
0,0,0.031122,p1
0.014354,0,0.031122,p1
0,0,0.031122,p1
0.014634,0,0.031122,p1
0,0,0.031122,p1
0.02451,0,0.031122,p1
0,0,0.031122,p1
0.045226,0,0.031122,p1
0,0,0.031122,p1
0.024752,0,0.031174,p1
0,0,0.031174,p1
0.0199,0,0.031174,p1
0,0,0.031174,p1
0.020202,0,0.031174,p1
0,0,0.031174,p1
0.004785,0,0.031174,p1
0,0,0.031174,p1
0,0,0.031174,p1
0,0,0.031174,p1
0,0,0.031174,p1
0.004785,0,0.031174,p1
0,0,0.031174,p1
0.009804,0,0.031174,p1
0,0,0.031174,p1
0,0,0.031174,p1
0,0,0.031174,p1
0.019324,0,0.031174,p1
0,0,0.031174,p1
0.014563,0,0.031174,p1
0,0,0.031174,p1
0,0,0.031174,p1
0,0,0.031174,p1
0,0,0.031174,p1
0,0,0.031174,p1
0.019139,0,0.031174,p1
0,0,0.031174,p1
0.014354,0,0.031174,p1
0,0,0.031174,p1
0.019512,0,0.031176,p1
0,0,0.031176,p1
0,0,0.031176,p1
0,0,0.031176,p1
0.004975,0,0.031176,p1
0,0,0.031176,p1
0.019512,0,0.031176,p1
0,0,0.031176,p1
0.019139,0,0.031176,p1
0,0,0.031176,p1
0.038095,0,0.031176,p1
0,0,0.031176,p1
0.004878,0,0.031176,p1
0,0,0.031164,p1
0.00495,0,0.031164,p1
0.004926,0,0.031164,p1
0,0,0.031164,p1
0.014778,0,0.031139,p1
0,0,0.031139,p1
0.0199,0,0.031105,p1
0,0,0.031105,p1
0.004831,0,0.031105,p1
0,0,0.031105,p1
0.004926,0,0.031105,p1
0,0,0.031105,p1
0,0,0.031105,p1
0,0,0.031105,p1
0.019324,0,0.031105,p1
0,0,0.031105,p1
0,0,0.031105,p1
0,0,0.031105,p1
0.019802,0,0.031105,p1
0,0,0.031105,p1
0,0,0.031105,p1
0,0,0.031105,p1
0.019231,0,0.031105,p1
0,0,0.031105,p1
0.040404,0,0.031105,p1
0,0,0.031105,p1
0.019417,0,0.031105,p1
0,0,0.031105,p1
0.019048,0,0.031105,p1
0,0,0.031105,p1
0.045226,0,0.03113,p1
0,0,0.03113,p1
0,0,0.03113,p1
0,0,0.03113,p1
0.004975,0,0.031134,p1
0,0,0.031134,p1
0,0,0.031134,p1
0.004831,0,0.031134,p1
0,0,0.031134,p1
0.005025,0,0.031136,p1
0,0,0.031136,p1
0.009901,0,0.031141,p1
0,0,0.031141,p1
0,0,0.028734,p1
0,0,0.028734,p1
0.004065,0,0.028734,p1
0,0,0.028734,p1
0.158416,0,0.028938,p1
0.208738,0.013761,0.028911,p1
0.211823,0.009465,0.028896,p1
0.182692,0.009126,0.028896,p1
0,0,0.028896,p1
0,0,0.028896,p1
0,0,0.028896,p1
0.004785,0,0.028896,p1
0,0,0.028896,p1
0,0,0.028896,p1
0,0,0.028896,p1
0.066667,0,0.028896,p1
0.174468,0.017141,0.028896,p1
0.19802,0.021566,0.028915,p1
0.20603,0.016413,0.028915,p1
0.203883,0.012516,0.028915,p1
0.20098,0.009336,0.028917,p1
0.199029,0.009324,0.028919,p1
0.160156,0.014497,0.028919,p1
0.08502,0,0.028919,p1
0,0,0.028919,p1
0,0,0.028919,p1
0,0,0.028919,p1
0.138614,0,0.028919,p1
0.208955,0.013663,0.028953,p1
0.068627,0,0.028923,p1
0,0,0.028923,p1
0.005102,0,0.028923,p1
0,0,0.028923,p1
0,0,0.028923,p1
0,0,0.028923,p1
0.171429,0,0.028923,p1
0.207071,0.012235,0.028923,p1
0.21393,0.013228,0.028923,p1
0.206897,0.014251,0.028923,p1
0.014634,0,0.028923,p1
0.009709,0,0.028923,p1
0.20202,0,0.028923,p1
0.178723,0.013604,0.029005,p1
0.003846,0,0.029012,p1
0.005155,0,0.029012,p1
0,0,0.029012,p1
0.00495,0,0.029012,p1
0,0,0.029012,p1
0.070755,0,0.040817,p1
0.20614,0,0.073444,p0
0.240566,0.012665,0.073444,p0
0.254902,0.007086,0.073417,p0
0.300493,0.007028,0.073356,p0
0.327434,0.012669,0.074956,p0
0.341584,0.007286,0.076167,p0
0.30837,0.00475,0.076314,p0
0.310345,0.005205,0.082101,p0
0.278761,0.0048,0.078898,p0
0.344828,0.005101,0.077104,p0
0.307018,0.004689,0.075436,p0
0.333333,0.004585,0.080762,p0
0.302439,0.00512,0.077376,p0
0.322115,0.005402,0.075453,p0
0.321244,0.006036,0.079888,p0
0.31,0.00595,0.075266,p0
0.3125,0.005249,0.079715,p0
0.316583,0.004915,0.075559,p0
0.275362,0.00528,0.079511,p0
0.281407,0.007456,0.079838,p0
0.286408,0.007728,0.081059,p0
0.266376,0.011357,0.082238,p0
0.315,0.005614,0.075302,p0
0.307317,0.005109,0.081299,p0
0.257813,0.00529,0.077757,p0
0.357143,0.008551,0.075207,p0
0.256,0.007359,0.079206,p0
0.302222,0.009066,0.076944,p0
0.292079,0.008674,0.079964,p0
0.287879,0.006898,0.081762,p0
0.271111,0.008496,0.080709,p0
0.286408,0.013144,0.079789,p0
0.295238,0.005429,0.081541,p0
0.308756,0.005523,0.078456,p0
0.253846,0.004854,0.076165,p0
0.285714,0.004797,0.074857,p0
0.306533,0.004754,0.078336,p0
0.324873,0.004846,0.082131,p0
0.333333,0.006147,0.078315,p0
0.318627,0.008221,0.079488,p0
0.301508,0.006933,0.075028,p0
0.283843,0.01039,0.075314,p0
0.31068,0.013663,0.075457,p0
0.329949,0.015078,0.075765,p0
0.278846,0.016126,0.075988,p0
0.289855,0.005174,0.077277,p0
0.273543,0.006104,0.077388,p0
0.280193,0.008802,0.078191,p0
0.246862,0.005322,0.079168,p0
0.306533,0.011124,0.080128,p0
0.287736,0.005346,0.081141,p0
0.256198,0.016036,0.074301,p0
0.251012,0.006419,0.076182,p0
0.288462,0.00917,0.077458,p0
0.296117,0.011253,0.078823,p0
0.296117,0.010253,0.07949,p0
0.289855,0.010262,0.081251,p0
0.281818,0.007562,0.081929,p0
0.304124,0.008536,0.074649,p0
0.285714,0.010451,0.075516,p0
0.309179,0.01264,0.077037,p0
0.300971,0.015462,0.078403,p0
0.261224,0.007576,0.081162,p0
0.311005,0.009499,0.075957,p0
0.323529,0.009271,0.079896,p0
0.369231,0.008343,0.07826,p0
0.358586,0.005588,0.077614,p0
0.352657,0.005035,0.07765,p0
0.27907,0.004729,0.076647,p0
0.330049,0.008361,0.076066,p0
0.333333,0.009364,0.076771,p0
0,0,0.073535,p0
0,0,0.073535,p0
0,0,0.073663,p0
0,0,0.073663,p0
0,0,0.073663,p0
0,0,0.073663,p0
0.004878,0,0.073672,p0
0.019512,0,0.073912,p0
0.024876,0,0.073897,p0
0.088235,0,0.073939,p0
0,0,0.073939,p0
0,0,0.07395,p0
0,0,0.07395,p0
0.019704,0,0.073967,p0
0,0,0.073967,p0
0,0,0.073967,p0
0.004975,0,0.073967,p0
0,0,0.073967,p0
0,0,0.073967,p0
0,0,0.073967,p0
0,0,0.073967,p0
0,0,0.073967,p0
0,0,0.073967,p0
0,0,0.073969,p0
0,0,0.073969,p0
0.015385,0,0.074063,p0
0,0,0.074063,p0
0.129353,0,0.074055,p0
0.1,0,0.074028,p0
0,0,0.074028,p0
0,0,0.074028,p0
0.019139,0,0.074028,p0
0,0,0.074028,p0
0.009569,0,0.074028,p0
0,0,0.074028,p0
0.157635,0,0.074055,p0
0,0,0.074055,p0
0,0,0.074055,p0
0,0,0.074055,p0
0,0,0.074055,p0
0,0,0.074055,p0
0,0,0.074055,p0
0,0,0.074055,p0
0,0,0.074055,p0
0.043062,0,0.074065,p0
0.208955,0,0.074042,p0
0.069307,0,0.074099,p0
0.117949,0,0.074076,p0
0.019512,0,0.074091,p0
0,0,0.074091,p0
0.014634,0,0.074091,p0
0,0,0.074091,p0
0,0,0.074091,p0
0,0,0.074091,p0
0.019417,0,0.074091,p0
0,0,0.074091,p0
0.124402,0,0.074106,p0
0.019802,0,0.074106,p0
0,0,0.074106,p0
0,0,0.074106,p0
0.019139,0,0.074108,p0
0,0,0.074108,p0
0,0,0.074108,p0
0,0,0.074108,p0
0.138756,0,0.07411,p0
0,0,0.07411,p0
0,0,0.07411,p0
0,0,0.07411,p0
0.019324,0,0.074112,p0
0,0,0.074112,p0
0,0,0.074112,p0
0,0,0.074112,p0
0.014925,0,0.074114,p0
0.014354,0,0.074116,p0
0.223214,0,0.074089,p0
0.00495,0,0.074089,p0
0,0,0.074089,p0
0.004902,0,0.074089,p0
0,0,0.074089,p0
0,0,0.074089,p0
0,0,0.074089,p0
0,0,0.074089,p0
0,0,0.074089,p0
0.009756,0,0.074097,p0
0,0,0.074097,p0
0.004878,0,0.074097,p0
0,0,0.074097,p0
0.164179,0,0.07411,p0
0.048544,0,0.07411,p0
0.019231,0,0.074129,p0
0,0,0.074129,p0
0.004785,0,0.074129,p0
0,0,0.074129,p0
0.004975,0,0.074129,p0
0,0,0.074129,p0
0,0,0.074129,p0
0,0,0.074129,p0
0.014634,0,0.074131,p0
0,0,0.074131,p0
0.014493,0,0.074131,p0
0,0,0.074131,p0
0.222772,0,0.074101,p0
0.045455,0,0.074101,p0
0,0,0.074101,p0
0,0,0.074101,p0
0.014423,0,0.074131,p0
0,0,0.074131,p0
0.261084,0,0.074106,p0
0.009569,0,0.074106,p0
0,0,0.074106,p0
0.014563,0,0.074141,p0
0,0,0.074141,p0
0.042654,0,0.074143,p0
0.099099,0,0.074143,p0
0.02,0,0.074143,p0
0,0,0.074143,p0
0.009569,0,0.074146,p0
0,0,0.074146,p0
0.009804,0,0.074146,p0
0,0,0.074146,p0
0,0,0.029323,p1
0,0,0.029323,p1
0.279412,0,0.073705,p0
0.206897,0,0.073705,p0
0.257282,0.01106,0.077795,p0
0.350254,0.00567,0.079223,p0
0.260504,0.016316,0.07574,p0
0.30198,0.007945,0.076969,p0
0.319588,0.005524,0.079366,p0
0.299492,0.010599,0.080724,p0
0.308824,0.007398,0.074697,p0
0.261803,0.006051,0.076664,p0
0.323529,0.010137,0.081537,p0
0.293333,0.007206,0.077824,p0
0.287611,0.009607,0.075609,p0
0.342105,0.011973,0.078768,p0
0.328,0.004494,0.075481,p0
0.366379,0.007934,0.078149,p0
0.379808,0.006622,0.078271,p0
0.321739,0.007088,0.078338,p0
0.334783,0.006921,0.080035,p0
0.363208,0.008783,0.073861,p0
0.369458,0.007238,0.076074,p0
0.296,0.006518,0.07471,p0
0.242537,0.010726,0.076157,p0
0.326316,0.011656,0.075805,p0
0.345361,0.005164,0.076127,p0
0.37931,0.004567,0.074958,p0
0.303644,0.008203,0.076184,p0
0.319444,0.005054,0.074162,p0
0.221402,0.007607,0.076496,p0
0.239837,0.005068,0.078248,p0
0.217228,0.005135,0.079637,p0
0.322115,0.009044,0.076239,p0
0.251938,0.011451,0.080667,p0
0.238971,0.008293,0.075729,p0
0.321782,0.009038,0.080686,p0
0.35,0.007725,0.07801,p0
0.236559,0.008028,0.082282,p0
0.230483,0.016295,0.075706,p0
0.277778,0.008436,0.077681,p0
0.209622,0.009071,0.079071,p0
0.230769,0.006992,0.081284,p0
0.309524,0.005279,0.078932,p0
0.234657,0.005422,0.075921,p0
0.216216,0.010463,0.077079,p0
0.22963,0.011055,0.081444,p0
0.256,0.009286,0.078033,p0
0.331731,0.010795,0.076005,p0
0.328502,0.009155,0.081924,p0
0.22973,0.005715,0.07814,p0
0.318841,0.009697,0.075047,p0
0.300926,0.008913,0.080099,p0
0.278008,0.00686,0.07981,p0
0.283898,0.008133,0.077437,p0
0.253112,0.005397,0.078614,p0
0.168033,0,0.076262,p0
0.004808,0,0.076264,p0
0.030043,0,0.076338,p0
0,0,0.076331,p0
0.009901,0,0.076331,p0
0,0,0.076331,p0
0,0,0.076331,p0
0,0,0.076331,p0
0,0,0.076331,p0
0,0,0.076331,p0
0.004926,0,0.076331,p0
0,0,0.076331,p0
0,0,0.076331,p0
0,0,0.076331,p0
0.00495,0,0.076331,p0
0,0,0.076331,p0
0,0,0.076331,p0
0,0,0.076331,p0
0,0,0.076331,p0
0,0,0.076331,p0
0,0,0.076331,p0
0,0,0.076331,p0
0,0,0.076331,p0
0,0,0.076331,p0
0,0,0.076331,p0
0.009662,0,0.076331,p0
0,0,0.076331,p0
0.004902,0,0.076331,p0
0,0,0.076331,p0
0.004878,0,0.076331,p0
0,0,0.076331,p0
0.009615,0,0.076331,p0
0,0,0.076331,p0
0,0,0.076331,p0
0,0,0.076331,p0
0,0,0.076331,p0
0,0,0.076331,p0
0.004762,0,0.076331,p0
0,0,0.076331,p0
0,0,0.076331,p0
0,0,0.076331,p0
0.009901,0,0.076331,p0
0,0,0.076331,p0
0.005076,0,0.076331,p0
0,0,0.076331,p0
0.004808,0,0.076331,p0
0,0,0.076331,p0
0,0,0.076331,p0
0,0,0.076331,p0
0,0,0.076331,p0
0,0,0.076331,p0
0.004785,0,0.076331,p0
0,0,0.076331,p0
0,0,0.076331,p0
0.004975,0,0.076331,p0
0,0,0.076331,p0
0,0,0.076331,p0
0,0,0.076331,p0
0,0,0.076331,p0
0,0,0.076331,p0
0.010152,0,0.076382,p0
0,0,0.076382,p0
0.004444,0,0.076382,p0
0,0,0.076382,p0
0,0,0.028976,p1
0.011299,0.337205,0.028999,p1
0,0,0.028999,p1
0.009901,0,0.029008,p1
0,0,0.029008,p1
0.004785,0,0.029008,p1
0,0,0.029008,p1
0,0,0.029008,p1
0,0,0.029008,p1
0.004808,0,0.029008,p1
0,0,0.029008,p1
0.009524,0,0.029033,p1
0,0,0.029033,p1
0,0,0.029033,p1
0,0,0.029033,p1
0.005556,0,0.029033,p1
0,0,0.029033,p1
0,0,0.029033,p1
0,0,0.029033,p1
0,0,0.029033,p1
0,0,0.029033,p1
0,0,0.029033,p1
0,0,0.029033,p1
0,0,0.029033,p1
0,0,0.029033,p1
0,0,0.029033,p1
0,0,0.029033,p1
0,0,0.029033,p1
0,0,0.029033,p1
0,0,0.029033,p1
0.004854,0,0.029033,p1
0,0,0.029033,p1
0.004717,0,0.029033,p1
0,0,0.029033,p1
0,0,0.029033,p1
0,0,0.029033,p1
0.004902,0,0.029033,p1
0,0,0.029033,p1
0,0,0.029033,p1
0,0,0.029033,p1
0,0,0.029033,p1
0,0,0.029033,p1
0.014286,0,0.029033,p1
0,0,0.029033,p1
0,0,0.029033,p1
0,0,0.029033,p1
0,0,0.029033,p1
0,0,0.029033,p1
0.039216,0,0.029239,p1
0.066327,0,0.029239,p1
0,0,0.029239,p1
0,0,0.029239,p1
0,0,0.029239,p1
0.014634,0,0.029239,p1
0,0,0.029239,p1
0,0,0.029239,p1
0,0,0.029239,p1
0,0,0.029239,p1
0,0,0.029239,p1
0.016461,0,0.029271,p1
0,0,0.029271,p1
0,0,0.029271,p1
0,0,0.029271,p1
0.019139,0,0.029271,p1
0,0,0.029271,p1
0.014563,0,0.029271,p1
0,0,0.029271,p1
0.004831,0,0.029245,p1
0,0,0.029245,p1
0.004831,0,0.029245,p1
0,0,0.029245,p1
0,0,0.029245,p1
0,0,0.029245,p1
0.019512,0,0.029248,p1
0,0,0.029248,p1
0.18408,0,0.02925,p1
0.071429,0,0.029222,p1
0.019704,0,0.029224,p1
0,0,0.029224,p1
0.009709,0,0.029224,p1
0,0,0.029224,p1
0.004808,0,0.029224,p1
0,0,0.029224,p1
0.145729,0,0.029256,p1
0,0,0.029256,p1
0.145631,0,0.02926,p1
0,0,0.02926,p1
0.014778,0,0.02926,p1
0,0,0.02926,p1
0,0,0.02926,p1
0.057143,0,0.029267,p1
0.348485,0,0.029267,p1
0,0,0.029267,p1
0,0,0.029267,p1
0.08867,0,0.029262,p1
0.121951,0,0.02925,p1
0.087805,0,0.029309,p1
0.07,0,0.029309,p1
0.014778,0,0.029309,p1
0,0,0.029309,p1
0.014563,0,0.029309,p1
0,0,0.029309,p1
0.119403,0,0.029245,p1
0.141361,0,0.029245,p1
0.005,0,0.029245,p1
0,0,0.029245,p1
0.019704,0,0.029279,p1
0,0,0.029279,p1
0.014634,0,0.029281,p1
0,0,0.029281,p1
0.004785,0,0.029281,p1
0,0,0.029281,p1
0,0,0.029281,p1
0,0,0.029281,p1
0,0,0.029281,p1
0,0,0.029281,p1
0.220588,0,0.029254,p1
0.036458,0,0.029254,p1
0.176768,0,0.029288,p1
0,0,0.029288,p1
0,0,0.029083,p1
0,0,0.029083,p1
0.00495,0,0.029083,p1
0,0,0.029083,p1
0.208333,0,0.074626,p0
0.247525,0.010335,0.074626,p0
0.263682,0.012035,0.074642,p0
0.371981,0.012196,0.074746,p0
0.378641,0.016168,0.074737,p0
0.328829,0.010154,0.074984,p0
0.241026,0.06379,0.075565,p0
0.0199,0,0.075569,p0
0.00995,0,0.075569,p0
0.005,0,0.075569,p0
0,0,0.075569,p0
0.005102,0,0.075569,p0
0,0,0.075569,p0
0,0,0.075569,p0
0.004854,0,0.075569,p0
0,0,0.075569,p0
0.004808,0,0.075569,p0
0,0,0.075569,p0
0,0,0.075607,p0
0.00495,0,0.075607,p0
0,0,0.075607,p0
0.004854,0,0.075607,p0
0,0,0.075607,p0
0.004878,0,0.075617,p0
0,0,0.075617,p0
0,0,0.075617,p0
0.004878,0,0.075617,p0
0,0,0.075617,p0
0,0,0.075617,p0
0.004831,0,0.075617,p0
0,0,0.075617,p0
0.004878,0,0.075617,p0
0,0,0.075617,p0
0.004831,0,0.075617,p0
0,0,0.075617,p0
0,0,0.075617,p0
0.004808,0,0.075617,p0
0,0,0.075617,p0
0.004808,0,0.075617,p0
0,0,0.075617,p0
0,0,0.075617,p0
0.004717,0,0.075617,p0
0,0,0.075617,p0
0,0,0.075617,p0
0.004854,0,0.075617,p0
0,0,0.075617,p0
0.004808,0,0.075617,p0
0,0,0.075617,p0
0.004926,0,0.075679,p0
0,0,0.075679,p0
0.005025,0,0.075679,p0
0,0,0.075679,p0
0,0,0.075679,p0
0.004831,0,0.075679,p0
0,0,0.075679,p0
0,0,0.075679,p0
0.004785,0,0.075679,p0
0,0,0.075679,p0
0.004831,0,0.075679,p0
0,0,0.075679,p0
0,0,0.075679,p0
0.004831,0,0.075679,p0
0,0,0.075811,p0
0.00495,0,0.075811,p0
0,0,0.075811,p0
0,0,0.075811,p0
0.004785,0,0.075811,p0
0,0,0.075811,p0
0,0,0.075811,p0
0.004831,0,0.075811,p0
0,0,0.075811,p0
0.004831,0,0.075811,p0
0,0,0.075811,p0
0,0,0.075811,p0
0.004831,0,0.075811,p0
0,0,0.075811,p0
0.005,0,0.075811,p0
0,0,0.075811,p0
0,0,0.075811,p0
0.004854,0,0.075811,p0
0,0,0.075811,p0
0.004831,0,0.075811,p0
0,0,0.075811,p0
0.005076,0,0.075811,p0
0,0,0.075811,p0
0.004878,0,0.075902,p0
0,0,0.075902,p0
0,0,0.075902,p0
0.004854,0,0.075902,p0
0,0,0.075902,p0
0.004739,0,0.075902,p0
0,0,0.075902,p0
0,0,0.075902,p0
0.004902,0,0.075902,p0
0.004808,0,0.075902,p0
0,0,0.075902,p0
0.004785,0,0.075902,p0
0,0,0.075919,p0
0.004831,0,0.075919,p0
0.005102,0,0.075919,p0
0,0,0.075919,p0
0.004762,0,0.075919,p0
0.004854,0,0.075919,p0
0,0,0.075919,p0
0.005076,0,0.075919,p0
0,0,0.075919,p0
0,0,0.075919,p0
0,0,0.075919,p0
0,0,0.075919,p0
0.005,0,0.075919,p0
0,0,0.075919,p0
0.004831,0,0.075919,p0
0,0,0.075919,p0
0,0,0.075919,p0
0.004831,0,0.075919,p0
0,0,0.075919,p0
0,0,0.028732,p1
0,0,0.028732,p1
0,0,0.028732,p1
0,0,0.028732,p1
0.005076,0,0.028923,p1
0,0,0.028923,p1
0,0,0.028923,p1
0,0,0.028923,p1
0,0,0.028923,p1
0,0,0.028923,p1
0,0,0.028923,p1
0.014563,0,0.028942,p1
0,0,0.028942,p1
0.004808,0,0.02893,p1
0,0,0.02893,p1
0.004854,0,0.02893,p1
0,0,0.02893,p1
0,0,0.02893,p1
0,0,0.02893,p1
0.093878,0,0.051776,p1
0.223301,0,0.073312,p0
0.266667,0.010513,0.07332,p0
0.356436,0.010899,0.073301,p0
0.371859,0.014699,0.073265,p0
0.358209,0.011868,0.073251,p0
0.341463,0.010415,0.079856,p0
0.154167,0,0.078521,p0
0.029126,0,0.078526,p0
0.026432,0,0.078547,p0
0.004854,0,0.078547,p0
0,0,0.078412,p0
0,0,0.078412,p0
0,0,0.078412,p0
0,0,0.078412,p0
0,0,0.078412,p0
0,0,0.078412,p0
0,0,0.078412,p0
0,0,0.078412,p0
0,0,0.078412,p0
0.211538,0,0.07484,p0
0.310345,0,0.074847,p0
0.367347,0.013921,0.074754,p0
0.357513,0.013921,0.074948,p0
0.343612,0.013485,0.074948,p0
0.33913,0.009184,0.074931,p0
0.220779,0,0.075664,p0
0.029851,0,0.075693,p0
0,0,0.075693,p0
0,0,0.075693,p0
0,0,0.075693,p0
0.004808,0,0.075708,p0
0,0,0.075708,p0
0.004785,0,0.075708,p0
0,0,0.075708,p0
0,0,0.075708,p0
0,0,0.075708,p0
0.004785,0,0.075708,p0
0,0,0.075708,p0
0,0,0.075708,p0
0,0,0.075708,p0
0.004808,0,0.075708,p0
0,0,0.075708,p0
0,0,0.075708,p0
0,0,0.075708,p0
0,0,0.075708,p0
0,0,0.075708,p0
0,0,0.075708,p0
0,0,0.075708,p0
0.015152,0,0.075708,p0
0,0,0.075708,p0
0,0,0.075708,p0
0,0,0.075708,p0
0.003891,0,0.075708,p0
0,0,0.075708,p0
0.004975,0,0.075708,p0
0,0,0.075708,p0
0,0,0.075708,p0
0.004831,0,0.075708,p0
0,0,0.075708,p0
0.004878,0,0.075708,p0
0,0,0.075708,p0
0,0,0.075708,p0
0,0,0.075708,p0
0.004878,0,0.075708,p0
0,0,0.075708,p0
0,0,0.075708,p0
0,0,0.075708,p0
0,0,0.075708,p0
0,0,0.075708,p0
0.004808,0,0.075708,p0
0,0,0.075708,p0
0,0,0.075708,p0
0,0,0.075708,p0
0,0,0.075708,p0
0,0,0.075708,p0
0.009901,0,0.075708,p0
0,0,0.075708,p0
0.059406,0,0.076988,p0
0.059113,0,0.076988,p0
0,0,0.076988,p0
0,0,0.076988,p0
0.009662,0,0.076988,p0
0,0,0.076988,p0
0,0,0.076988,p0
0,0,0.076988,p0
0.009569,0,0.076988,p0
0.009615,0,0.077062,p0
0.015228,0,0.07707,p0
0,0,0.077064,p0
0,0,0.077064,p0
0.004878,0,0.077058,p0
0,0,0.077058,p0
0.014706,0,0.077052,p0
0,0,0.077052,p0
0.015152,0,0.077085,p0
0,0,0.077085,p0
0.020202,0,0.07711,p0
0,0,0.07711,p0
0,0,0.07711,p0
0,0,0.07711,p0
0,0,0.031652,p1
0,0,0.031652,p1
0.009479,0,0.031657,p1
0,0,0.031657,p1
0,0,0.031657,p1
0,0,0.031657,p1
0,0,0.031657,p1
0,0,0.031657,p1
0,0,0.031657,p1
0,0,0.031657,p1
0,0,0.031657,p1
0,0,0.031657,p1
0,0,0.031657,p1
0,0,0.031657,p1
0,0,0.031657,p1
0,0,0.031657,p1
0,0,0.031657,p1
0,0,0.031657,p1
0,0,0.031657,p1
0,0,0.031657,p1
0,0,0.031657,p1
0.004808,0,0.031657,p1
0,0,0.031657,p1
0.004854,0,0.031657,p1
0,0,0.031657,p1
0.009756,0,0.031657,p1
0,0,0.031657,p1
0,0,0.031657,p1
0,0,0.031657,p1
0,0,0.031657,p1
0,0,0.031657,p1
0,0,0.031657,p1
0,0,0.031657,p1
0.004902,0,0.031678,p1
0,0,0.031678,p1
0,0,0.031678,p1
0,0,0.031678,p1
0.004854,0,0.031678,p1
0.00939,0,0.031678,p1
0,0,0.031678,p1
0,0,0.031678,p1
0,0,0.031678,p1
0,0,0.031678,p1
0,0,0.031678,p1
0.004878,0,0.031688,p1
0,0,0.031688,p1
0,0,0.031688,p1
0,0,0.031688,p1
0.009901,0,0.03169,p1
0,0,0.03169,p1
0.005128,0,0.03169,p1
0,0,0.03169,p1
0.005025,0,0.03169,p1
0,0,0.03169,p1
0,0,0.03169,p1
0,0,0.03169,p1
0,0,0.03169,p1
0,0,0.03169,p1
0.004831,0,0.03169,p1
0,0,0.03169,p1
0.004739,0,0.03169,p1
0,0,0.03169,p1
0,0,0.03169,p1
0,0,0.03169,p1
0.004831,0,0.03169,p1
0,0,0.03169,p1
0,0,0.03169,p1
0,0,0.03169,p1
0.057692,0,0.03236,p1
0.053659,0,0.032362,p1
0,0,0.032362,p1
0.004785,0,0.032362,p1
0,0,0.032362,p1
0.014634,0,0.032493,p1
0,0,0.032493,p1
0.02,0,0.032507,p1
0,0,0.032507,p1
0.005102,0,0.032503,p1
0,0,0.032503,p1
0.004808,0,0.032503,p1
0,0,0.032503,p1
0.014634,0,0.032476,p1
0,0,0.032476,p1
0,0,0.032476,p1
0,0,0.032476,p1
0.004831,0,0.032476,p1
0,0,0.032476,p1
0,0,0.032476,p1
0,0,0.032476,p1
0,0,0.032476,p1
0,0,0.032476,p1
0,0,0.032476,p1
0,0,0.032476,p1
0.004762,0,0.032476,p1
0,0,0.032476,p1
0.004808,0,0.032476,p1
0,0,0.032476,p1
0.00995,0,0.032476,p1
0,0,0.032476,p1
0,0,0.032476,p1
0,0,0.032476,p1
0,0,0.032476,p1
0,0,0.032476,p1
0.004831,0,0.032476,p1
0.004831,0,0.032482,p1
0,0,0.032482,p1
0,0,0.032482,p1
0,0,0.032482,p1
0.004878,0,0.032482,p1
0,0,0.032482,p1
0,0,0.032482,p1
0,0,0.032482,p1
0.005025,0,0.032482,p1
0,0,0.032482,p1
0,0,0.032482,p1
0,0,0.032482,p1
0.004878,0,0.032482,p1
0,0,0.032482,p1
0.014493,0,0.03252,p1
0,0,0.03252,p1
0,0,0.030185,p1
0,0,0.030185,p1
0.009804,0,0.030185,p1
0,0,0.030185,p1
0.245098,0,0.074727,p0
0.23301,0,0.074727,p0
0.272277,0.014601,0.077626,p0
0.240741,0.011616,0.080634,p0
0.292683,0.013961,0.082906,p0
0.295238,0.010898,0.080671,p0
0.309645,0.010698,0.082232,p0
0.320388,0.006732,0.076624,p0
0.293269,0.005871,0.078724,p0
0.305,0.005702,0.081371,p0
0.302885,0.005214,0.08232,p0
0.285714,0.004941,0.083028,p0
0.306533,0.009168,0.076241,p0
0.302564,0.01229,0.077077,p0
0.290816,0.009266,0.077738,p0
0.305825,0.00865,0.080008,p0
0.315534,0.006569,0.07578,p0
0.307018,0.005887,0.0835,p0
0.376289,0.005574,0.081086,p0
0.36,0.005499,0.079421,p0
0.370558,0.005092,0.078886,p0
0.364078,0.005442,0.078311,p0
0.333333,0.005076,0.077329,p0
0.326733,0.004962,0.083068,p0
0.328502,0.004665,0.079374,p0
0.333333,0.005043,0.075763,p0
0.315789,0.006155,0.075152,p0
0.272374,0.005403,0.082268,p0
0.341346,0.010406,0.081006,p0
0.352941,0.007101,0.081284,p0
0.368932,0.009221,0.07562,p0
0.364532,0.006962,0.078115,p0
0.310606,0.004531,0.082779,p0
0.337719,0.005212,0.076967,p0
0.424242,0.004927,0.082512,p0
0.405941,0.004643,0.080254,p0
0.389423,0.004505,0.075201,p0
0.334764,0.005259,0.078144,p0
0.307407,0.004599,0.075752,p0
0.341564,0.005427,0.08151,p0
0.404878,0.004351,0.079168,p0
0.348178,0.005187,0.075028,p0
0.303704,0.008283,0.079305,p0
0.326693,0.008449,0.080711,p0
0.30315,0.004854,0.075034,p0
0.339286,0.004552,0.077835,p0
0.380952,0.005115,0.080187,p0
0.352941,0.00521,0.080587,p0
0.343284,0.004669,0.078214,p0
0.269231,0.005132,0.081758,p0
0.320197,0.004921,0.077047,p0
0.306034,0.005218,0.075228,p0
0.368932,0.004786,0.077214,p0
0.345972,0.004587,0.075978,p0
0.402985,0.005902,0.079886,p0
0.336207,0.00964,0.075335,p0
0.393204,0.008584,0.078378,p0
0.370536,0.006491,0.076809,p0
0.324324,0.009516,0.079602,p0
0.332075,0.010382,0.077885,p0
0.412935,0.004459,0.082611,p0
0.448276,0.004018,0.079947,p0
0.337255,0.005295,0.07638,p0
0.403941,0.011185,0.081802,p0
0.323009,0.011094,0.080145,p0
0.344498,0.005822,0.075973,p0
0.179389,0.005043,0.075369,p0
0.033654,0,0.07551,p0
0.016129,0,0.075525,p0
0,0,0.075525,p0
0.248804,0,0.076355,p0
0.2,0,0.0835,p0
0.302885,0.008556,0.08188,p0
0.316832,0.008469,0.079572,p0
0.35533,0.004691,0.081958,p0
0.384236,0.004604,0.078881,p0
0.393782,0.005523,0.076592,p0
0.331818,0.004927,0.077125,p0
0.367647,0.004836,0.079042,p0
0.348039,0.004996,0.078542,p0
0.356098,0.00549,0.077822,p0
0.338308,0.005338,0.083704,p0
0.338912,0.004686,0.077757,p0
0.348416,0.00521,0.07981,p0
0.306122,0.005189,0.08077,p0
0.365854,0.005697,0.079376,p0
0.330544,0.007675,0.082124,p0
0.304878,0.010155,0.083087,p0
0.297959,0.005433,0.081954,p0
0.356098,0.005196,0.080703,p0
0.376884,0.012298,0.081461,p0
0.416268,0.007471,0.075969,p0
0.276119,0.053428,0.076489,p0
0.399061,0.120081,0.082082,p0
0.341991,0.004747,0.083154,p0
0.405941,0.00829,0.079892,p0
0.365639,0.010543,0.075691,p0
0.358407,0.012554,0.080848,p0
0.363636,0.004865,0.080276,p0
0.448276,0.010577,0.080688,p0
0.338645,0.013615,0.078132,p0
0.419192,0.007984,0.083695,p0
0.370892,0.004219,0.078212,p0
0.39196,0.003183,0.080926,p0
0.37069,0.003509,0.080054,p0
0.385281,0.004174,0.07886,p0
0.275556,0.00448,0.078119,p0
0.308824,0.004856,0.082181,p0
0.311005,0.004734,0.07813,p0
0.321608,0.004927,0.081937,p0
0.334928,0.004687,0.07945,p0
0.293333,0.005533,0.083994,p0
0.265823,0.005031,0.077148,p0
0.287805,0.004855,0.07778,p0
0.321782,0.005989,0.077993,p0
0.261062,0.005166,0.079288,p0
0,0,0.080575,p0
0,0,0.080575,p0
0.005076,0,0.080579,p0
0,0,0.080579,p0
0.004854,0,0.080562,p0
0,0,0.080562,p0
0,0,0.080562,p0
0,0,0.080562,p0
0,0,0.080562,p0
0.005,0,0.080642,p0
0,0,0.080642,p0
0,0,0.080642,p0
0,0,0.080642,p0
0.004878,0,0.080642,p0
0,0,0.080642,p0
0.004808,0,0.080642,p0
0,0,0.080642,p0
0.009709,0,0.080644,p0
0,0,0.080644,p0
0,0,0.080644,p0
0,0,0.080644,p0
0.004831,0,0.080644,p0
0,0,0.080644,p0
0,0,0.080644,p0
0,0,0.080644,p0
0,0,0.080745,p0
0,0,0.080745,p0
0.004808,0,0.080745,p0
0,0,0.080745,p0
0,0,0.080745,p0
0,0,0.080745,p0
0.004831,0,0.0808,p0
0,0,0.0808,p0
0,0,0.0808,p0
0,0,0.0808,p0
0.004739,0,0.0808,p0
0,0,0.0808,p0
0.004808,0,0.0808,p0
0,0,0.0808,p0
0.004831,0,0.0808,p0
0,0,0.0808,p0
0.207031,0,0.073971,p0
0.241206,0,0.073956,p0
0.257426,0.012752,0.073939,p0
0.362319,0.006738,0.075097,p0
0.325893,0.005925,0.076527,p0
0.117347,0,0.080766,p0
0.035176,0,0.080815,p0
0.017167,0,0.080838,p0
0,0,0.080838,p0
0.067633,0,0.039166,p1
0.231441,0,0.077845,p0
0.309278,0.010173,0.074482,p0
0.324607,0.005638,0.079993,p0
0.038961,0,0.08048,p0
0.030457,0,0.080427,p0
0,0,0.080427,p0
0,0,0.080427,p0
0.004831,0,0.080427,p0
0,0,0.080427,p0
0.005102,0,0.080427,p0
0,0,0.080427,p0
0,0,0.080427,p0
0,0,0.080427,p0
0,0,0.080427,p0
0,0,0.080427,p0
0.004808,0,0.080427,p0
0,0,0.080427,p0
0.004739,0,0.080427,p0
0,0,0.080427,p0
0.087805,0,0.08065,p0
0.221106,0.013528,0.080634,p0
0.21393,0.009338,0.080627,p0
0.205882,0.013639,0.08061,p0
0.187773,0.011995,0.08061,p0
0.21256,0.009554,0.08061,p0
0.21,0.012142,0.08061,p0
0.21,0.009379,0.08061,p0
0.205882,0.009111,0.08061,p0
0.215686,0.010835,0.08061,p0
0.211823,0.013871,0.08061,p0
0.213592,0.015524,0.080617,p0
0.216749,0.01237,0.080617,p0
0.207921,0.012494,0.080617,p0
0.189427,0.013399,0.080617,p0
0.217822,0.013512,0.080617,p0
0.211538,0.012179,0.080617,p0
0.162281,0,0.080619,p0
0,0,0.080619,p0
0,0,0.080619,p0
0,0,0.080619,p0
0.004831,0,0.080619,p0
0,0,0.080619,p0
0.004878,0,0.080619,p0
0,0,0.080619,p0
0,0,0.080619,p0
0,0,0.080619,p0
0,0,0.080619,p0
0,0,0.080619,p0
0,0,0.029096,p1
0.004065,0,0.029096,p1
0,0,0.029096,p1
0,0,0.029096,p1
0.058537,0,0.030079,p1
0,0,0.030079,p1
0,0,0.030079,p1
0.019417,0,0.030084,p1
0,0,0.030084,p1
0,0,0.030084,p1
0,0,0.030084,p1
0,0,0.030084,p1
0,0,0.030084,p1
0.019512,0,0.030084,p1
0,0,0.030084,p1
0.015,0,0.030084,p1
0,0,0.030084,p1
0.009615,0,0.030084,p1
0,0,0.030084,p1
0.019417,0,0.030084,p1
0,0,0.030084,p1
0.02,0,0.030084,p1
0,0,0.030084,p1
0.024752,0,0.030084,p1
0,0,0.030084,p1
0.020513,0,0.030111,p1
0,0,0.030111,p1
0,0,0.030111,p1
0,0,0.030111,p1
0.242857,0,0.073798,p0
0.212121,0,0.073798,p0
0.258706,0.015587,0.073703,p0
0.259804,0.010078,0.073705,p0
0.390863,0.00849,0.073678,p0
0.357843,0.009513,0.07367,p0
0.328358,0.008305,0.074405,p0
0,0,0.074405,p0
0.028708,0,0.074407,p0
0.004926,0,0.074407,p0
0,0,0.074407,p0
0.004808,0,0.074407,p0
0,0,0.074407,p0
0.009524,0,0.074421,p0
0,0,0.074421,p0
0.004831,0,0.074421,p0
0,0,0.074421,p0
0.005025,0,0.074421,p0
0,0,0.074421,p0
0,0,0.074421,p0
0.004854,0,0.074421,p0
0,0,0.074421,p0
0.004975,0,0.074421,p0
0,0,0.074421,p0
0,0,0.074421,p0
0,0,0.074421,p0
0,0,0.074421,p0
0.004762,0,0.074421,p0
0,0,0.074421,p0
0,0,0.074421,p0
0.00495,0,0.074421,p0
0,0,0.074421,p0
0,0,0.074421,p0
0.004878,0,0.074421,p0
0,0,0.074421,p0
0.004902,0,0.074421,p0
0,0,0.074421,p0
0,0,0.074421,p0
0.004878,0,0.074421,p0
0,0,0.074421,p0
0.004808,0,0.074421,p0
0,0,0.074421,p0
0,0,0.074421,p0
0.004902,0,0.074421,p0
0,0,0.074421,p0
0.004808,0,0.074421,p0
0,0,0.074421,p0
0.004854,0,0.074421,p0
0,0,0.074421,p0
0,0,0.074421,p0
0.004902,0,0.074421,p0
0,0,0.074421,p0
0.004739,0,0.074421,p0
0,0,0.074421,p0
0.004762,0,0.074421,p0
0.004785,0,0.074514,p0
0,0,0.074514,p0
0,0,0.074514,p0
0.004808,0,0.074514,p0
0,0,0.074514,p0
0.004739,0,0.074514,p0
0,0,0.074514,p0
0,0,0.074512,p0
0,0,0.074512,p0
0,0,0.074512,p0
0.004762,0,0.074512,p0
0,0,0.074529,p0
0.009615,0,0.074529,p0
0.00495,0,0.074529,p0
0,0,0.074529,p0
0,0,0.074529,p0
0.004717,0,0.074529,p0
0,0,0.074529,p0
0,0,0.074529,p0
0,0,0.074529,p0
0.004386,0,0.074529,p0
0.004808,0,0.074529,p0
0,0,0.074529,p0
0.004902,0,0.074529,p0
0,0,0.074661,p0
0.00495,0,0.074661,p0
0,0,0.074661,p0
0,0,0.074661,p0
0,0,0.074661,p0
0,0,0.074661,p0
0.004975,0,0.074661,p0
0,0,0.074661,p0
0,0,0.074661,p0
0.004831,0,0.074661,p0
0,0,0.074661,p0
0,0,0.074661,p0
0,0,0.028342,p1
0,0,0.028342,p1
0.010101,0,0.028367,p1
0,0,0.028367,p1
0,0,0.028367,p1
0,0,0.028367,p1
0,0,0.028464,p1
0,0,0.028447,p1
0.009709,0,0.028447,p1
0,0,0.028447,p1
0,0,0.028447,p1
0.004878,0,0.028447,p1
0,0,0.028447,p1
0.004808,0,0.028447,p1
0,0,0.028447,p1
0,0,0.028447,p1
0,0,0.028449,p1
0.121359,0,0.051135,p1
0.18595,0,0.072922,p0
0.249147,0.01168,0.072909,p0
0.276119,0.010959,0.072787,p0
0.320175,0.009312,0.077351,p0
0.284444,0.024734,0.078102,p0
0.321429,0.013768,0.079884,p0
0.318408,0.023336,0.079772,p0
0.135678,0,0.074335,p0
0.029126,0,0.074343,p0
0.029268,0,0.074371,p0
0,0,0.074337,p0
0.266667,0,0.073914,p0
0.171717,0,0.073914,p0
0.213974,0.009131,0.073914,p0
0.256158,0.00964,0.073849,p0
0.333333,0.007243,0.07383,p0
0.408163,0.019937,0.073823,p0
0.26699,0.020653,0.080069,p0
0.302222,0.006853,0.081819,p0
0.305164,0.006853,0.08239,p0
0.335,0.005916,0.074693,p0
0.277533,0.006747,0.074773,p0
0.288462,0.005268,0.075007,p0
0.268482,0.005,0.081208,p0
0.284444,0.017255,0.081731,p0
0.303318,0.00663,0.076226,p0
0.29703,0.004892,0.07789,p0
0.306533,0.005238,0.07921,p0
0.31401,0.004945,0.074415,p0
0.316038,0.005899,0.08096,p0
0.311111,0.008561,0.079503,p0
0.327801,0.010831,0.082063,p0
0.336323,0.010381,0.075447,p0
0.342222,0.008259,0.076512,p0
0.344398,0.007327,0.079319,p0
0.307087,0.00563,0.075253,p0
0.372449,0.004987,0.077283,p0
0.365482,0.005094,0.078557,p0
0.356098,0.004504,0.079595,p0
0.371287,0.004825,0.081173,p0
0.342222,0.004537,0.074956,p0
0.330508,0.005393,0.077157,p0
0.358209,0.005023,0.077883,p0
0.341584,0.004858,0.077523,p0
0.314159,0.102412,0.076592,p0
0.388889,0.2494,0.077397,p0
0.321739,0.341266,0.078212,p0
0.371429,0.250417,0.078349,p0
0.323144,0.255144,0.078622,p0
0.365854,0.261073,0.07829,p0
0.352113,0.315733,0.075236,p0
0.358209,0.253977,0.081453,p0
0.343434,0.245051,0.076953,p0
0.343137,0.010415,0.074436,p0
0.328205,0.009336,0.077565,p0
0.296651,0.010535,0.080097,p0
0.357143,0.012679,0.079151,p0
0.309237,0.01222,0.081783,p0
0.413462,0.005702,0.077473,p0
0.358744,0.007241,0.079587,p0
0.378151,0.007873,0.076679,p0
0.399103,0.004883,0.082409,p0
0.448276,0.004697,0.079305,p0
0.423645,0.006273,0.076453,p0
0.4375,0.006887,0.075849,p0
0.354582,0.010815,0.082535,p0
0,0,0.02865,p1
0,0,0.02865,p1
0.010101,0,0.02866,p1
0,0,0.02866,p1
0.004926,0,0.02866,p1
0,0,0.02866,p1
0,0,0.02866,p1
0,0,0.02866,p1
0,0,0.02866,p1
0.004831,0,0.02866,p1
0,0,0.02866,p1
0.004831,0,0.028685,p1
0,0,0.028685,p1
0.00495,0,0.028685,p1
0,0,0.028685,p1
0.004854,0,0.028671,p1
0,0,0.028671,p1
0.01005,0,0.028671,p1
0,0,0.028671,p1
0,0,0.028671,p1
0,0,0.028671,p1
0.177885,0,0.064943,p0
0.237864,0,0.073855,p0
0.352381,0.024049,0.073855,p0
0.296875,0.014593,0.073779,p0
0.374384,0.015716,0.0738,p0
0.373134,0.010652,0.073792,p0
0.283784,0.00959,0.081514,p0
0.278049,0.006861,0.077803,p0
0.172589,0.011139,0.0755,p0
0.020202,0,0.075645,p0
0.035897,0,0.075645,p0
0.00939,0,0.0755,p0
0.030303,0,0.0755,p0
0,0,0.0755,p0
0,0,0.0755,p0
0,0,0.0755,p0
0.004808,0,0.075514,p0
0,0,0.075514,p0
0.004808,0,0.075514,p0
0,0,0.075514,p0
0,0,0.075514,p0
0,0,0.075514,p0
0.009524,0,0.075502,p0
0.004926,0,0.075502,p0
0,0,0.075502,p0
0.004762,0,0.075502,p0
0,0,0.075502,p0
0,0,0.075502,p0
0,0,0.075502,p0
0.004926,0,0.075502,p0
0,0,0.075502,p0
0.005076,0,0.075502,p0
0,0,0.075502,p0
0.004878,0,0.075502,p0
0,0,0.075502,p0
0,0,0.075502,p0
0,0,0.075502,p0
0.009569,0,0.075502,p0
0,0,0.075502,p0
0,0,0.075502,p0
0,0,0.075502,p0
0,0,0.075502,p0
0,0,0.075502,p0
0,0,0.075502,p0
0,0,0.075502,p0
0,0,0.075502,p0
0,0,0.075502,p0
0.038647,0,0.075799,p0
0.063107,0,0.075799,p0
0.019608,0,0.075839,p0
0,0,0.075839,p0
0.019139,0,0.075872,p0
0,0,0.075872,p0
0.009756,0,0.075872,p0
0,0,0.075872,p0
0,0,0.075872,p0
0.004878,0,0.075872,p0
0,0,0.075872,p0
0.019608,0,0.075879,p0
0,0,0.075879,p0
0,0,0.075879,p0
0,0,0.075879,p0
0,0,0.075879,p0
0,0,0.075879,p0
0.009479,0,0.075898,p0
0,0,0.075898,p0
0.103448,0,0.075891,p0
0.160976,0,0.075862,p0
0.034146,0,0.075872,p0
0,0,0.075872,p0
0,0,0.075872,p0
0,0,0.075872,p0
0.014354,0,0.075872,p0
0,0,0.075872,p0
0.004854,0,0.075872,p0
0,0,0.075872,p0
0.169154,0,0.0759,p0
0,0,0.0759,p0
0.019608,0,0.0759,p0
0,0,0.0759,p0
0,0,0.0759,p0
0,0,0.0759,p0
0.019231,0,0.075902,p0
0,0,0.075902,p0
0.014706,0,0.075902,p0
0,0,0.075902,p0
0.218447,0,0.075891,p0
0.009615,0,0.075891,p0
0.009709,0,0.075904,p0
0.033333,0,0.075904,p0
0.201794,0,0.075881,p0
0,0,0.075881,p0
0,0,0.075881,p0
0.004878,0,0.075881,p0
0,0,0.075881,p0
0,0,0.075881,p0
0,0,0.075881,p0
0.014563,0,0.075883,p0
0,0,0.075883,p0
0,0,0.029822,p1
0.003906,0,0.029822,p1
0,0,0.029822,p1
0,0,0.029822,p1
0.028986,0,0.030437,p1
0,0,0.030437,p1
0,0,0.030437,p1
0.004808,0,0.030437,p1
0,0,0.030437,p1
0,0,0.030437,p1
0,0,0.030437,p1
0.004808,0,0.030437,p1
0,0,0.030437,p1
0,0,0.030437,p1
0,0,0.030437,p1
0.009901,0,0.030442,p1
0,0,0.030442,p1
0,0,0.030442,p1
0,0,0.030442,p1
0.009852,0,0.030442,p1
0,0,0.030442,p1
0.004975,0,0.030442,p1
0,0,0.030442,p1
0,0,0.030442,p1
0,0,0.030442,p1
0.004717,0,0.030442,p1
0,0,0.030442,p1
0,0,0.030442,p1
0,0,0.030442,p1
0,0,0.030442,p1
0,0,0.030442,p1
0.004831,0,0.030442,p1
0,0,0.030442,p1
0.00995,0,0.030442,p1
0,0,0.030442,p1
0.005102,0,0.030442,p1
0,0,0.030442,p1
0.004785,0,0.030442,p1
0,0,0.030442,p1
0.004878,0,0.030442,p1
0,0,0.030442,p1
0,0,0.030442,p1
0.004854,0,0.030442,p1
0,0,0.030442,p1
0,0,0.030442,p1
0,0,0.030442,p1
0,0,0.030442,p1
0,0,0.030442,p1
0,0,0.030442,p1
0,0,0.030442,p1
0.004739,0,0.030442,p1
0,0,0.030442,p1
0,0,0.030442,p1
0,0,0.030442,p1
0.003774,0,0.030442,p1
0,0,0.030442,p1
0.009217,0,0.03,p1
